^C:\USERS\UKROVIKAN\SOURCE\REPOS\GAME01\GAME01\GAME.CPP|C:\USERS\UKROVIKAN\SOURCE\REPOS\GAME01\GAME01\GAME01.CPP
C:\USERS\UKROVIKAN\SOURCE\REPOS\GAME01\GAME01\X64\DEBUG\VC143.PDB
C:\USERS\UKROVIKAN\SOURCE\REPOS\GAME01\GAME01\X64\DEBUG\VC143.IDB
C:\USERS\UKROVIKAN\SOURCE\REPOS\GAME01\GAME01\X64\DEBUG\GAME01.OBJ
C:\USERS\UKROVIKAN\SOURCE\REPOS\GAME01\GAME01\X64\DEBUG\GAME.OBJ
^C:\USERS\UKROVIKAN\SOURCE\REPOS\GAME01\GAME01\GAME.CPP
C:\USERS\UKROVIKAN\SOURCE\REPOS\GAME01\GAME01\X64\DEBUG\VC143.PDB
^C:\USERS\UKROVIKAN\SOURCE\REPOS\GAME01\GAME01\GAME01.CPP
C:\USERS\UKROVIKAN\SOURCE\REPOS\GAME01\GAME01\X64\DEBUG\VC143.PDB
