^C:\USERS\UKROVIKAN\SOURCE\REPOS\GAME01\GAME01\X64\DEBUG\GAME.OBJ|C:\USERS\UKROVIKAN\SOURCE\REPOS\GAME01\GAME01\X64\DEBUG\GAME01.OBJ
D:\DEV\SFML\LIB\SFML-GRAPHICS.LIB
D:\DEV\SFML\LIB\SFML-WINDOW.LIB
D:\DEV\SFML\LIB\SFML-SYSTEM.LIB
D:\DEV\SFML\LIB\SFML-AUDIO.LIB
D:\DEV\SFML\LIB\SFML-NETWORK.LIB
D:\WINDOWS KITS\10\LIB\10.0.19041.0\UM\X64\KERNEL32.LIB
D:\WINDOWS KITS\10\LIB\10.0.19041.0\UM\X64\USER32.LIB
D:\WINDOWS KITS\10\LIB\10.0.19041.0\UM\X64\GDI32.LIB
D:\WINDOWS KITS\10\LIB\10.0.19041.0\UM\X64\WINSPOOL.LIB
D:\WINDOWS KITS\10\LIB\10.0.19041.0\UM\X64\COMDLG32.LIB
D:\WINDOWS KITS\10\LIB\10.0.19041.0\UM\X64\ADVAPI32.LIB
D:\WINDOWS KITS\10\LIB\10.0.19041.0\UM\X64\SHELL32.LIB
D:\WINDOWS KITS\10\LIB\10.0.19041.0\UM\X64\OLE32.LIB
D:\WINDOWS KITS\10\LIB\10.0.19041.0\UM\X64\OLEAUT32.LIB
D:\WINDOWS KITS\10\LIB\10.0.19041.0\UM\X64\UUID.LIB
D:\WINDOWS KITS\10\LIB\10.0.19041.0\UM\X64\ODBC32.LIB
D:\WINDOWS KITS\10\LIB\10.0.19041.0\UM\X64\ODBCCP32.LIB
C:\USERS\UKROVIKAN\SOURCE\REPOS\GAME01\GAME01\X64\DEBUG\GAME.OBJ
C:\USERS\UKROVIKAN\SOURCE\REPOS\GAME01\GAME01\X64\DEBUG\GAME01.OBJ
C:\USERS\UKROVIKAN\SOURCE\REPOS\GAME01\GAME01\X64\DEBUG\GAME01.ILK
C:\WINDOWS\SYSTEM32\TZRES.DLL
C:\WINDOWS\GLOBALIZATION\SORTING\SORTDEFAULT.NLS
D:\DEV\VISSTUDIO2022\VC\TOOLS\MSVC\14.30.30705\LIB\X64\MSVCPRTD.LIB
D:\DEV\VISSTUDIO2022\VC\TOOLS\MSVC\14.30.30705\LIB\X64\MSVCRTD.LIB
D:\DEV\VISSTUDIO2022\VC\TOOLS\MSVC\14.30.30705\LIB\X64\OLDNAMES.LIB
D:\DEV\VISSTUDIO2022\VC\TOOLS\MSVC\14.30.30705\LIB\X64\VCRUNTIMED.LIB
D:\WINDOWS KITS\10\LIB\10.0.19041.0\UCRT\X64\UCRTD.LIB
D:\DEV\VISSTUDIO2022\VC\TOOLS\MSVC\14.30.30705\BIN\HOSTX64\X64\CVTRES.EXE
C:\USERS\UKROVIKAN\SOURCE\REPOS\GAME01\GAME01\X64\DEBUG\VC143.PDB
